CS441 data analysis
…
Classification & Department by gender

# classification & department by gender
moma %>%
  group_by(Gender.y, Classification) %>%
  summarise(count = n()) %>%
  arrange(Gender.y, desc(count))

`summarise()` has grouped output by 'Gender.y'. You can override using the
`.groups` argument.

# A tibble: 79 × 3
# Groups:   Gender.y [5]
   Gender.y Classification            count
   <chr>    <chr>                     <int>
 1 female   Print                      6768
 2 female   Photograph                 5245
 3 female   Drawing                    2571
 4 female   Illustrated Book           2407
 5 female   Design                     2105
 6 female   Architecture                964
 7 female   Mies van der Rohe Archive   847
 8 female   Video                       762
 9 female   Painting                    339
10 female   Sculpture                   272
# ℹ 69 more rows
…
moma %>%
  group_by(Gender.y, Department) %>%
  summarise(count = n()) %>%
  arrange(Gender.y, desc(count))

`summarise()` has grouped output by 'Gender.y'. You can override using the
`.groups` argument.

# A tibble: 23 × 3
# Groups:   Gender.y [5]
   Gender.y              Department                            count
   <chr>                 <chr>                                 <int>
 1 female                Drawings & Prints                     12563
 2 female                Photography                            5063
 3 female                Architecture & Design                  3912
 4 female                Media and Performance                  1022
 5 female                Painting & Sculpture                    624
 6 female                Film                                    157
 7 female                Fluxus Collection                       104
 8 female                <NA>                                     15
 9 female                Architecture & Design - Image Archive     4
10 gender non-conforming Drawings & Prints                         2
# ℹ 13 more rows
…
Nationality distribution by gender

# nationality
moma %>%
  group_by(Gender.y, Nationality.y) %>%
  summarise(count = n())

`summarise()` has grouped output by 'Gender.y'. You can override using the
`.groups` argument.

# A tibble: 204 × 3
# Groups:   Gender.y [5]
   Gender.y Nationality.y count
   <chr>    <chr>         <int>
 1 female   ""              350
 2 female   "Afghan"          1
 3 female   "American"    14237
 4 female   "Argentine"     505
 5 female   "Australian"     38
 6 female   "Austrian"      241
 7 female   "Bahamian"        3
 8 female   "Bangladeshi"     8
 9 female   "Belgian"        30
10 female   "Bosnian"         2
# ℹ 194 more rows
…
moma %>%
  group_by(Nationality.y, Gender.y) %>%
  summarise(count = n(), .groups = 'drop') %>%
  group_by(Nationality.y) %>%
  mutate(
    total = sum(count),
    percentage = round(count/sum(count) * 100, 1)
  ) %>%
  filter(total >= 1000) %>%  # Adjust threshold as needed
  arrange(desc(total)) %>%
  select(Nationality.y, Gender.y, count, percentage, total)

# A tibble: 36 × 5
# Groups:   Nationality.y [16]
   Nationality.y Gender.y              count percentage total
   <chr>         <chr>                 <int>      <dbl> <int>
 1 American      female                14237       17.8 79921
 2 American      gender non-conforming     2        0   79921
 3 American      male                  65670       82.2 79921
 4 American      non-binary               12        0   79921
 5 French        female                  700        2.9 24382
 6 French        male                  23682       97.1 24382
 7 German        female                 1899       17.9 10633
 8 German        male                   8734       82.1 10633
 9 British       female                  788       11.7  6746
10 British       male                   5957       88.3  6746
# ℹ 26 more rows

Artwork’s choice of medium by gender

# medium
moma %>%
  group_by(Medium, Gender.y) %>%
  summarise(count = n()) %>%
  arrange(desc(count))

`summarise()` has grouped output by 'Medium'. You can override using the
`.groups` argument.

# A tibble: 23,460 × 3
# Groups:   Medium [21,922]
   Medium                    Gender.y count
   <chr>                     <chr>    <int>
 1 "Gelatin silver print"    male     14341
 2 ""                        male      8245
 3 "Lithograph"              male      7743
 4 "Pencil on paper"         male      7118
 5 "Albumen silver print"    male      4743
 6 "Gelatin silver print"    female    2353
 7 "Pencil on tracing paper" male      1996
 8 "Etching"                 male      1428
 9 "Chromogenic print"       male      1386
10 "Ink on paper"            male      1351
# ℹ 23,450 more rows
…
Artwork’s choice of medium by gender

# medium
tate %>%
  group_by(medium, gender) %>%
  summarise(count = n()) %>%
  arrange(desc(count))

`summarise()` has grouped output by 'medium'. You can override using the
`.groups` argument.

# A tibble: 3,550 × 3
# Groups:   medium [3,355]
   medium                              gender count
   <chr>                               <chr>  <int>
 1 "Graphite on paper"                 Male   25956
 2 ""                                  Male    6384
 3 "Oil paint on canvas"               Male    3125
 4 "Screenprint on paper"              Male    2827
 5 "Lithograph on paper"               Male    2308
 6 "Watercolour on paper"              Male    1855
 7 "Etching on paper"                  Male    1633
 8 "Graphite and watercolour on paper" Male    1580
 9 "Ink on paper"                      Male     818
10 "Intaglio print on paper"           Male     791
# ℹ 3,540 more rows
…
